id,teacher_id,slot_id,parent_id,month_id,day,status,parent_comment,year,date,uid
1531,2,1,,12,13,Aktiven,,2016,13. 12. 2016,13_December_2016_2_1
1532,2,2,,12,13,Aktiven,,2016,13. 12. 2016,13_December_2016_2_2
1533,2,3,,12,13,Aktiven,,2016,13. 12. 2016,13_December_2016_2_3
1534,2,4,,12,13,Aktiven,,2016,13. 12. 2016,13_December_2016_2_4
1535,2,5,,12,13,Aktiven,,2016,13. 12. 2016,13_December_2016_2_5
1536,2,6,,12,13,Aktiven,,2016,13. 12. 2016,13_December_2016_2_6
1537,2,7,,12,13,Aktiven,,2016,13. 12. 2016,13_December_2016_2_7
1538,2,8,,12,13,Aktiven,,2016,13. 12. 2016,13_December_2016_2_8
1539,2,9,,12,13,Aktiven,,2016,13. 12. 2016,13_December_2016_2_9
1540,2,10,,12,13,Aktiven,,2016,13. 12. 2016,13_December_2016_2_10
1541,2,11,,12,13,Aktiven,,2016,13. 12. 2016,13_December_2016_2_11
1542,2,12,,12,13,Aktiven,,2016,13. 12. 2016,13_December_2016_2_12
1543,2,13,,12,13,Aktiven,,2016,13. 12. 2016,13_December_2016_2_13
1544,2,14,,12,13,Aktiven,,2016,13. 12. 2016,13_December_2016_2_14
1545,2,15,,12,13,Aktiven,,2016,13. 12. 2016,13_December_2016_2_15
1546,2,16,,12,13,Aktiven,,2016,13. 12. 2016,13_December_2016_2_16
1547,2,17,,12,13,Aktiven,,2016,13. 12. 2016,13_December_2016_2_17
1548,3,1,,12,13,Aktiven,,2016,13. 12. 2016,13_December_2016_3_1
1549,3,2,,12,13,Aktiven,,2016,13. 12. 2016,13_December_2016_3_2
1550,3,3,,12,13,Aktiven,,2016,13. 12. 2016,13_December_2016_3_3
1551,3,4,,12,13,Aktiven,,2016,13. 12. 2016,13_December_2016_3_4
1552,3,5,,12,13,Aktiven,,2016,13. 12. 2016,13_December_2016_3_5
1553,3,6,,12,13,Aktiven,,2016,13. 12. 2016,13_December_2016_3_6
1554,3,7,,12,13,Aktiven,,2016,13. 12. 2016,13_December_2016_3_7
1555,3,8,,12,13,Aktiven,,2016,13. 12. 2016,13_December_2016_3_8
1556,3,9,,12,13,Aktiven,,2016,13. 12. 2016,13_December_2016_3_9
1557,3,10,,12,13,Aktiven,,2016,13. 12. 2016,13_December_2016_3_10
1558,3,11,,12,13,Aktiven,,2016,13. 12. 2016,13_December_2016_3_11
1559,3,12,,12,13,Aktiven,,2016,13. 12. 2016,13_December_2016_3_12
1560,3,13,,12,13,Aktiven,,2016,13. 12. 2016,13_December_2016_3_13
1561,3,14,,12,13,Aktiven,,2016,13. 12. 2016,13_December_2016_3_14
1562,3,15,,12,13,Aktiven,,2016,13. 12. 2016,13_December_2016_3_15
1563,3,16,,12,13,Aktiven,,2016,13. 12. 2016,13_December_2016_3_16
1564,3,17,,12,13,Aktiven,,2016,13. 12. 2016,13_December_2016_3_17
1565,4,1,,12,13,Aktiven,,2016,13. 12. 2016,13_December_2016_4_1
1566,4,2,,12,13,Aktiven,,2016,13. 12. 2016,13_December_2016_4_2
1567,4,3,,12,13,Aktiven,,2016,13. 12. 2016,13_December_2016_4_3
1568,4,4,,12,13,Aktiven,,2016,13. 12. 2016,13_December_2016_4_4
1569,4,5,,12,13,Aktiven,,2016,13. 12. 2016,13_December_2016_4_5
1570,4,6,,12,13,Aktiven,,2016,13. 12. 2016,13_December_2016_4_6
1571,4,7,,12,13,Aktiven,,2016,13. 12. 2016,13_December_2016_4_7
1572,4,8,,12,13,Aktiven,,2016,13. 12. 2016,13_December_2016_4_8
1573,4,9,,12,13,Aktiven,,2016,13. 12. 2016,13_December_2016_4_9
1574,4,10,,12,13,Aktiven,,2016,13. 12. 2016,13_December_2016_4_10
1575,4,11,,12,13,Aktiven,,2016,13. 12. 2016,13_December_2016_4_11
1576,4,12,,12,13,Aktiven,,2016,13. 12. 2016,13_December_2016_4_12
1577,4,13,,12,13,Aktiven,,2016,13. 12. 2016,13_December_2016_4_13
1578,4,14,,12,13,Aktiven,,2016,13. 12. 2016,13_December_2016_4_14
1579,4,15,,12,13,Aktiven,,2016,13. 12. 2016,13_December_2016_4_15
1580,4,16,,12,13,Aktiven,,2016,13. 12. 2016,13_December_2016_4_16
1581,4,17,,12,13,Aktiven,,2016,13. 12. 2016,13_December_2016_4_17
1582,5,1,,12,13,Aktiven,,2016,13. 12. 2016,13_December_2016_5_1
1583,5,2,,12,13,Aktiven,,2016,13. 12. 2016,13_December_2016_5_2
1584,5,3,,12,13,Aktiven,,2016,13. 12. 2016,13_December_2016_5_3
1585,5,4,,12,13,Aktiven,,2016,13. 12. 2016,13_December_2016_5_4
1586,5,5,,12,13,Aktiven,,2016,13. 12. 2016,13_December_2016_5_5
1587,5,6,,12,13,Aktiven,,2016,13. 12. 2016,13_December_2016_5_6
1588,5,7,,12,13,Aktiven,,2016,13. 12. 2016,13_December_2016_5_7
1589,5,8,,12,13,Aktiven,,2016,13. 12. 2016,13_December_2016_5_8
1590,5,9,,12,13,Aktiven,,2016,13. 12. 2016,13_December_2016_5_9
1591,5,10,,12,13,Aktiven,,2016,13. 12. 2016,13_December_2016_5_10
1592,5,11,,12,13,Aktiven,,2016,13. 12. 2016,13_December_2016_5_11
1593,5,12,,12,13,Aktiven,,2016,13. 12. 2016,13_December_2016_5_12
1594,5,13,,12,13,Aktiven,,2016,13. 12. 2016,13_December_2016_5_13
1595,5,14,,12,13,Aktiven,,2016,13. 12. 2016,13_December_2016_5_14
1596,5,15,,12,13,Aktiven,,2016,13. 12. 2016,13_December_2016_5_15
1597,5,16,,12,13,Aktiven,,2016,13. 12. 2016,13_December_2016_5_16
1598,5,17,,12,13,Aktiven,,2016,13. 12. 2016,13_December_2016_5_17
1599,6,1,,12,13,Aktiven,,2016,13. 12. 2016,13_December_2016_6_1
1600,6,2,,12,13,Aktiven,,2016,13. 12. 2016,13_December_2016_6_2
1601,6,3,,12,13,Aktiven,,2016,13. 12. 2016,13_December_2016_6_3
1602,6,4,,12,13,Aktiven,,2016,13. 12. 2016,13_December_2016_6_4
1603,6,5,,12,13,Aktiven,,2016,13. 12. 2016,13_December_2016_6_5
1604,6,6,,12,13,Aktiven,,2016,13. 12. 2016,13_December_2016_6_6
1605,6,7,,12,13,Aktiven,,2016,13. 12. 2016,13_December_2016_6_7
1606,6,8,,12,13,Aktiven,,2016,13. 12. 2016,13_December_2016_6_8
1607,6,9,,12,13,Aktiven,,2016,13. 12. 2016,13_December_2016_6_9
1608,6,10,,12,13,Aktiven,,2016,13. 12. 2016,13_December_2016_6_10
1609,6,11,,12,13,Aktiven,,2016,13. 12. 2016,13_December_2016_6_11
1610,6,12,,12,13,Aktiven,,2016,13. 12. 2016,13_December_2016_6_12
1611,6,13,,12,13,Aktiven,,2016,13. 12. 2016,13_December_2016_6_13
1612,6,14,,12,13,Aktiven,,2016,13. 12. 2016,13_December_2016_6_14
1613,6,15,,12,13,Aktiven,,2016,13. 12. 2016,13_December_2016_6_15
1614,6,16,,12,13,Aktiven,,2016,13. 12. 2016,13_December_2016_6_16
1615,6,17,,12,13,Aktiven,,2016,13. 12. 2016,13_December_2016_6_17
1616,7,1,,12,13,Aktiven,,2016,13. 12. 2016,13_December_2016_7_1
1617,7,2,,12,13,Aktiven,,2016,13. 12. 2016,13_December_2016_7_2
1618,7,3,,12,13,Aktiven,,2016,13. 12. 2016,13_December_2016_7_3
1619,7,4,,12,13,Aktiven,,2016,13. 12. 2016,13_December_2016_7_4
1620,7,5,,12,13,Aktiven,,2016,13. 12. 2016,13_December_2016_7_5
1621,7,6,,12,13,Aktiven,,2016,13. 12. 2016,13_December_2016_7_6
1622,7,7,,12,13,Aktiven,,2016,13. 12. 2016,13_December_2016_7_7
1623,7,8,,12,13,Aktiven,,2016,13. 12. 2016,13_December_2016_7_8
1624,7,9,,12,13,Aktiven,,2016,13. 12. 2016,13_December_2016_7_9
1625,7,10,,12,13,Aktiven,,2016,13. 12. 2016,13_December_2016_7_10
1626,7,11,,12,13,Aktiven,,2016,13. 12. 2016,13_December_2016_7_11
1627,7,12,,12,13,Aktiven,,2016,13. 12. 2016,13_December_2016_7_12
1628,7,13,,12,13,Aktiven,,2016,13. 12. 2016,13_December_2016_7_13
1629,7,14,,12,13,Aktiven,,2016,13. 12. 2016,13_December_2016_7_14
1630,7,15,,12,13,Aktiven,,2016,13. 12. 2016,13_December_2016_7_15
1631,7,16,,12,13,Aktiven,,2016,13. 12. 2016,13_December_2016_7_16
1632,7,17,,12,13,Aktiven,,2016,13. 12. 2016,13_December_2016_7_17
1633,8,1,,12,13,Aktiven,,2016,13. 12. 2016,13_December_2016_8_1
1634,8,2,,12,13,Aktiven,,2016,13. 12. 2016,13_December_2016_8_2
1635,8,3,,12,13,Aktiven,,2016,13. 12. 2016,13_December_2016_8_3
1636,8,4,,12,13,Aktiven,,2016,13. 12. 2016,13_December_2016_8_4
1637,8,5,,12,13,Aktiven,,2016,13. 12. 2016,13_December_2016_8_5
1638,8,6,,12,13,Aktiven,,2016,13. 12. 2016,13_December_2016_8_6
1639,8,7,,12,13,Aktiven,,2016,13. 12. 2016,13_December_2016_8_7
1640,8,8,,12,13,Aktiven,,2016,13. 12. 2016,13_December_2016_8_8
1641,8,9,,12,13,Aktiven,,2016,13. 12. 2016,13_December_2016_8_9
1642,8,10,,12,13,Aktiven,,2016,13. 12. 2016,13_December_2016_8_10
1643,8,11,,12,13,Aktiven,,2016,13. 12. 2016,13_December_2016_8_11
1644,8,12,,12,13,Aktiven,,2016,13. 12. 2016,13_December_2016_8_12
1645,8,13,,12,13,Aktiven,,2016,13. 12. 2016,13_December_2016_8_13
1646,8,14,,12,13,Aktiven,,2016,13. 12. 2016,13_December_2016_8_14
1647,8,15,,12,13,Aktiven,,2016,13. 12. 2016,13_December_2016_8_15
1648,8,16,,12,13,Aktiven,,2016,13. 12. 2016,13_December_2016_8_16
1649,8,17,,12,13,Aktiven,,2016,13. 12. 2016,13_December_2016_8_17
1650,9,1,,12,13,Aktiven,,2016,13. 12. 2016,13_December_2016_9_1
1651,9,2,,12,13,Aktiven,,2016,13. 12. 2016,13_December_2016_9_2
1652,9,3,,12,13,Aktiven,,2016,13. 12. 2016,13_December_2016_9_3
1653,9,4,,12,13,Aktiven,,2016,13. 12. 2016,13_December_2016_9_4
1654,9,5,,12,13,Aktiven,,2016,13. 12. 2016,13_December_2016_9_5
1655,9,6,,12,13,Aktiven,,2016,13. 12. 2016,13_December_2016_9_6
1656,9,7,,12,13,Aktiven,,2016,13. 12. 2016,13_December_2016_9_7
1657,9,8,,12,13,Aktiven,,2016,13. 12. 2016,13_December_2016_9_8
1658,9,9,,12,13,Aktiven,,2016,13. 12. 2016,13_December_2016_9_9
1659,9,10,,12,13,Aktiven,,2016,13. 12. 2016,13_December_2016_9_10
1660,9,11,,12,13,Aktiven,,2016,13. 12. 2016,13_December_2016_9_11
1661,9,12,,12,13,Aktiven,,2016,13. 12. 2016,13_December_2016_9_12
1662,9,13,,12,13,Aktiven,,2016,13. 12. 2016,13_December_2016_9_13
1663,9,14,,12,13,Aktiven,,2016,13. 12. 2016,13_December_2016_9_14
1664,9,15,,12,13,Aktiven,,2016,13. 12. 2016,13_December_2016_9_15
1665,9,16,,12,13,Aktiven,,2016,13. 12. 2016,13_December_2016_9_16
1666,9,17,,12,13,Aktiven,,2016,13. 12. 2016,13_December_2016_9_17
1667,10,1,,12,13,Aktiven,,2016,13. 12. 2016,13_December_2016_10_1
1668,10,2,,12,13,Aktiven,,2016,13. 12. 2016,13_December_2016_10_2
1669,10,3,,12,13,Aktiven,,2016,13. 12. 2016,13_December_2016_10_3
1670,10,4,,12,13,Aktiven,,2016,13. 12. 2016,13_December_2016_10_4
1671,10,5,,12,13,Aktiven,,2016,13. 12. 2016,13_December_2016_10_5
1672,10,6,,12,13,Aktiven,,2016,13. 12. 2016,13_December_2016_10_6
1673,10,7,,12,13,Aktiven,,2016,13. 12. 2016,13_December_2016_10_7
1674,10,8,,12,13,Aktiven,,2016,13. 12. 2016,13_December_2016_10_8
1675,10,9,,12,13,Aktiven,,2016,13. 12. 2016,13_December_2016_10_9
1676,10,10,,12,13,Aktiven,,2016,13. 12. 2016,13_December_2016_10_10
1677,10,11,,12,13,Aktiven,,2016,13. 12. 2016,13_December_2016_10_11
1678,10,12,,12,13,Aktiven,,2016,13. 12. 2016,13_December_2016_10_12
1679,10,13,,12,13,Aktiven,,2016,13. 12. 2016,13_December_2016_10_13
1680,10,14,,12,13,Aktiven,,2016,13. 12. 2016,13_December_2016_10_14
1681,10,15,,12,13,Aktiven,,2016,13. 12. 2016,13_December_2016_10_15
1682,10,16,,12,13,Aktiven,,2016,13. 12. 2016,13_December_2016_10_16
1683,10,17,,12,13,Aktiven,,2016,13. 12. 2016,13_December_2016_10_17
1684,11,1,,12,13,Aktiven,,2016,13. 12. 2016,13_December_2016_11_1
1685,11,2,,12,13,Aktiven,,2016,13. 12. 2016,13_December_2016_11_2
1686,11,3,,12,13,Aktiven,,2016,13. 12. 2016,13_December_2016_11_3
1687,11,4,,12,13,Aktiven,,2016,13. 12. 2016,13_December_2016_11_4
1688,11,5,,12,13,Aktiven,,2016,13. 12. 2016,13_December_2016_11_5
1689,11,6,,12,13,Aktiven,,2016,13. 12. 2016,13_December_2016_11_6
1690,11,7,,12,13,Aktiven,,2016,13. 12. 2016,13_December_2016_11_7
1691,11,8,,12,13,Aktiven,,2016,13. 12. 2016,13_December_2016_11_8
1692,11,9,,12,13,Aktiven,,2016,13. 12. 2016,13_December_2016_11_9
1693,11,10,,12,13,Aktiven,,2016,13. 12. 2016,13_December_2016_11_10
1694,11,11,,12,13,Aktiven,,2016,13. 12. 2016,13_December_2016_11_11
1695,11,12,,12,13,Aktiven,,2016,13. 12. 2016,13_December_2016_11_12
1696,11,13,,12,13,Aktiven,,2016,13. 12. 2016,13_December_2016_11_13
1697,11,14,,12,13,Aktiven,,2016,13. 12. 2016,13_December_2016_11_14
1698,11,15,,12,13,Aktiven,,2016,13. 12. 2016,13_December_2016_11_15
1699,11,16,,12,13,Aktiven,,2016,13. 12. 2016,13_December_2016_11_16
1700,11,17,,12,13,Aktiven,,2016,13. 12. 2016,13_December_2016_11_17
