id,teacher_id,slot_id,parent_id,month_id,day,status,parent_comment,year,date,uid
681,2,1,,5,10,Aktiven,,2017,9. 5. 2017,10_Maj_2017_2_1
682,2,2,,5,10,Aktiven,,2017,9. 5. 2017,10_Maj_2017_2_2
683,2,3,,5,10,Aktiven,,2017,9. 5. 2017,10_Maj_2017_2_3
684,2,4,,5,10,Aktiven,,2017,9. 5. 2017,10_Maj_2017_2_4
685,2,5,,5,10,Aktiven,,2017,9. 5. 2017,10_Maj_2017_2_5
686,2,6,,5,10,Aktiven,,2017,9. 5. 2017,10_Maj_2017_2_6
687,2,7,,5,10,Aktiven,,2017,9. 5. 2017,10_Maj_2017_2_7
688,2,8,,5,10,Aktiven,,2017,9. 5. 2017,10_Maj_2017_2_8
689,2,9,,5,10,Aktiven,,2017,9. 5. 2017,10_Maj_2017_2_9
690,2,10,,5,10,Aktiven,,2017,9. 5. 2017,10_Maj_2017_2_10
691,2,11,,5,10,Aktiven,,2017,9. 5. 2017,10_Maj_2017_2_11
692,2,12,,5,10,Aktiven,,2017,9. 5. 2017,10_Maj_2017_2_12
693,2,13,,5,10,Aktiven,,2017,9. 5. 2017,10_Maj_2017_2_13
694,2,14,,5,10,Aktiven,,2017,9. 5. 2017,10_Maj_2017_2_14
695,2,15,,5,10,Aktiven,,2017,9. 5. 2017,10_Maj_2017_2_15
696,2,16,,5,10,Aktiven,,2017,9. 5. 2017,10_Maj_2017_2_16
697,2,17,,5,10,Aktiven,,2017,9. 5. 2017,10_Maj_2017_2_17
698,3,1,,5,10,Aktiven,,2017,9. 5. 2017,10_Maj_2017_3_1
699,3,2,,5,10,Aktiven,,2017,9. 5. 2017,10_Maj_2017_3_2
700,3,3,,5,10,Aktiven,,2017,9. 5. 2017,10_Maj_2017_3_3
701,3,4,,5,10,Aktiven,,2017,9. 5. 2017,10_Maj_2017_3_4
702,3,5,,5,10,Aktiven,,2017,9. 5. 2017,10_Maj_2017_3_5
703,3,6,,5,10,Aktiven,,2017,9. 5. 2017,10_Maj_2017_3_6
704,3,7,,5,10,Aktiven,,2017,9. 5. 2017,10_Maj_2017_3_7
705,3,8,,5,10,Aktiven,,2017,9. 5. 2017,10_Maj_2017_3_8
706,3,9,,5,10,Aktiven,,2017,9. 5. 2017,10_Maj_2017_3_9
707,3,10,,5,10,Aktiven,,2017,9. 5. 2017,10_Maj_2017_3_10
708,3,11,,5,10,Aktiven,,2017,9. 5. 2017,10_Maj_2017_3_11
709,3,12,,5,10,Aktiven,,2017,9. 5. 2017,10_Maj_2017_3_12
710,3,13,,5,10,Aktiven,,2017,9. 5. 2017,10_Maj_2017_3_13
711,3,14,,5,10,Aktiven,,2017,9. 5. 2017,10_Maj_2017_3_14
712,3,15,,5,10,Aktiven,,2017,9. 5. 2017,10_Maj_2017_3_15
713,3,16,,5,10,Aktiven,,2017,9. 5. 2017,10_Maj_2017_3_16
714,3,17,,5,10,Aktiven,,2017,9. 5. 2017,10_Maj_2017_3_17
715,4,1,,5,10,Aktiven,,2017,9. 5. 2017,10_Maj_2017_4_1
716,4,2,,5,10,Aktiven,,2017,9. 5. 2017,10_Maj_2017_4_2
717,4,3,,5,10,Aktiven,,2017,9. 5. 2017,10_Maj_2017_4_3
718,4,4,,5,10,Aktiven,,2017,9. 5. 2017,10_Maj_2017_4_4
719,4,5,,5,10,Aktiven,,2017,9. 5. 2017,10_Maj_2017_4_5
720,4,6,,5,10,Aktiven,,2017,9. 5. 2017,10_Maj_2017_4_6
721,4,7,,5,10,Aktiven,,2017,9. 5. 2017,10_Maj_2017_4_7
722,4,8,,5,10,Aktiven,,2017,9. 5. 2017,10_Maj_2017_4_8
723,4,9,,5,10,Aktiven,,2017,9. 5. 2017,10_Maj_2017_4_9
724,4,10,,5,10,Aktiven,,2017,9. 5. 2017,10_Maj_2017_4_10
725,4,11,,5,10,Aktiven,,2017,9. 5. 2017,10_Maj_2017_4_11
726,4,12,,5,10,Aktiven,,2017,9. 5. 2017,10_Maj_2017_4_12
727,4,13,,5,10,Aktiven,,2017,9. 5. 2017,10_Maj_2017_4_13
728,4,14,,5,10,Aktiven,,2017,9. 5. 2017,10_Maj_2017_4_14
729,4,15,,5,10,Aktiven,,2017,9. 5. 2017,10_Maj_2017_4_15
730,4,16,,5,10,Aktiven,,2017,9. 5. 2017,10_Maj_2017_4_16
731,4,17,,5,10,Aktiven,,2017,9. 5. 2017,10_Maj_2017_4_17
732,5,1,,5,10,Aktiven,,2017,9. 5. 2017,10_Maj_2017_5_1
733,5,2,,5,10,Aktiven,,2017,9. 5. 2017,10_Maj_2017_5_2
734,5,3,,5,10,Aktiven,,2017,9. 5. 2017,10_Maj_2017_5_3
735,5,4,,5,10,Aktiven,,2017,9. 5. 2017,10_Maj_2017_5_4
736,5,5,,5,10,Aktiven,,2017,9. 5. 2017,10_Maj_2017_5_5
737,5,6,,5,10,Aktiven,,2017,9. 5. 2017,10_Maj_2017_5_6
738,5,7,,5,10,Aktiven,,2017,9. 5. 2017,10_Maj_2017_5_7
739,5,8,,5,10,Aktiven,,2017,9. 5. 2017,10_Maj_2017_5_8
740,5,9,,5,10,Aktiven,,2017,9. 5. 2017,10_Maj_2017_5_9
741,5,10,,5,10,Aktiven,,2017,9. 5. 2017,10_Maj_2017_5_10
742,5,11,,5,10,Aktiven,,2017,9. 5. 2017,10_Maj_2017_5_11
743,5,12,,5,10,Aktiven,,2017,9. 5. 2017,10_Maj_2017_5_12
744,5,13,,5,10,Aktiven,,2017,9. 5. 2017,10_Maj_2017_5_13
745,5,14,,5,10,Aktiven,,2017,9. 5. 2017,10_Maj_2017_5_14
746,5,15,,5,10,Aktiven,,2017,9. 5. 2017,10_Maj_2017_5_15
747,5,16,,5,10,Aktiven,,2017,9. 5. 2017,10_Maj_2017_5_16
748,5,17,,5,10,Aktiven,,2017,9. 5. 2017,10_Maj_2017_5_17
749,6,1,,5,10,Aktiven,,2017,9. 5. 2017,10_Maj_2017_6_1
750,6,2,,5,10,Aktiven,,2017,9. 5. 2017,10_Maj_2017_6_2
751,6,3,,5,10,Aktiven,,2017,9. 5. 2017,10_Maj_2017_6_3
752,6,4,,5,10,Aktiven,,2017,9. 5. 2017,10_Maj_2017_6_4
753,6,5,,5,10,Aktiven,,2017,9. 5. 2017,10_Maj_2017_6_5
754,6,6,,5,10,Aktiven,,2017,9. 5. 2017,10_Maj_2017_6_6
755,6,7,,5,10,Aktiven,,2017,9. 5. 2017,10_Maj_2017_6_7
756,6,8,,5,10,Aktiven,,2017,9. 5. 2017,10_Maj_2017_6_8
757,6,9,,5,10,Aktiven,,2017,9. 5. 2017,10_Maj_2017_6_9
758,6,10,,5,10,Aktiven,,2017,9. 5. 2017,10_Maj_2017_6_10
759,6,11,,5,10,Aktiven,,2017,9. 5. 2017,10_Maj_2017_6_11
760,6,12,,5,10,Aktiven,,2017,9. 5. 2017,10_Maj_2017_6_12
761,6,13,,5,10,Aktiven,,2017,9. 5. 2017,10_Maj_2017_6_13
762,6,14,,5,10,Aktiven,,2017,9. 5. 2017,10_Maj_2017_6_14
763,6,15,,5,10,Aktiven,,2017,9. 5. 2017,10_Maj_2017_6_15
764,6,16,,5,10,Aktiven,,2017,9. 5. 2017,10_Maj_2017_6_16
765,6,17,,5,10,Aktiven,,2017,9. 5. 2017,10_Maj_2017_6_17
766,7,1,,5,10,Aktiven,,2017,9. 5. 2017,10_Maj_2017_7_1
767,7,2,,5,10,Aktiven,,2017,9. 5. 2017,10_Maj_2017_7_2
768,7,3,,5,10,Aktiven,,2017,9. 5. 2017,10_Maj_2017_7_3
769,7,4,,5,10,Aktiven,,2017,9. 5. 2017,10_Maj_2017_7_4
770,7,5,,5,10,Aktiven,,2017,9. 5. 2017,10_Maj_2017_7_5
771,7,6,,5,10,Aktiven,,2017,9. 5. 2017,10_Maj_2017_7_6
772,7,7,,5,10,Aktiven,,2017,9. 5. 2017,10_Maj_2017_7_7
773,7,8,,5,10,Aktiven,,2017,9. 5. 2017,10_Maj_2017_7_8
774,7,9,,5,10,Aktiven,,2017,9. 5. 2017,10_Maj_2017_7_9
775,7,10,,5,10,Aktiven,,2017,9. 5. 2017,10_Maj_2017_7_10
776,7,11,,5,10,Aktiven,,2017,9. 5. 2017,10_Maj_2017_7_11
777,7,12,,5,10,Aktiven,,2017,9. 5. 2017,10_Maj_2017_7_12
778,7,13,,5,10,Aktiven,,2017,9. 5. 2017,10_Maj_2017_7_13
779,7,14,,5,10,Aktiven,,2017,9. 5. 2017,10_Maj_2017_7_14
780,7,15,,5,10,Aktiven,,2017,9. 5. 2017,10_Maj_2017_7_15
781,7,16,,5,10,Aktiven,,2017,9. 5. 2017,10_Maj_2017_7_16
782,7,17,,5,10,Aktiven,,2017,9. 5. 2017,10_Maj_2017_7_17
783,8,1,,5,10,Aktiven,,2017,9. 5. 2017,10_Maj_2017_8_1
784,8,2,,5,10,Aktiven,,2017,9. 5. 2017,10_Maj_2017_8_2
785,8,3,,5,10,Aktiven,,2017,9. 5. 2017,10_Maj_2017_8_3
786,8,4,,5,10,Aktiven,,2017,9. 5. 2017,10_Maj_2017_8_4
787,8,5,,5,10,Aktiven,,2017,9. 5. 2017,10_Maj_2017_8_5
788,8,6,,5,10,Aktiven,,2017,9. 5. 2017,10_Maj_2017_8_6
789,8,7,,5,10,Aktiven,,2017,9. 5. 2017,10_Maj_2017_8_7
790,8,8,,5,10,Aktiven,,2017,9. 5. 2017,10_Maj_2017_8_8
791,8,9,,5,10,Aktiven,,2017,9. 5. 2017,10_Maj_2017_8_9
792,8,10,,5,10,Aktiven,,2017,9. 5. 2017,10_Maj_2017_8_10
793,8,11,,5,10,Aktiven,,2017,9. 5. 2017,10_Maj_2017_8_11
794,8,12,,5,10,Aktiven,,2017,9. 5. 2017,10_Maj_2017_8_12
795,8,13,,5,10,Aktiven,,2017,9. 5. 2017,10_Maj_2017_8_13
796,8,14,,5,10,Aktiven,,2017,9. 5. 2017,10_Maj_2017_8_14
797,8,15,,5,10,Aktiven,,2017,9. 5. 2017,10_Maj_2017_8_15
798,8,16,,5,10,Aktiven,,2017,9. 5. 2017,10_Maj_2017_8_16
799,8,17,,5,10,Aktiven,,2017,9. 5. 2017,10_Maj_2017_8_17
800,9,1,,5,10,Aktiven,,2017,9. 5. 2017,10_Maj_2017_9_1
801,9,2,,5,10,Aktiven,,2017,9. 5. 2017,10_Maj_2017_9_2
802,9,3,,5,10,Aktiven,,2017,9. 5. 2017,10_Maj_2017_9_3
803,9,4,,5,10,Aktiven,,2017,9. 5. 2017,10_Maj_2017_9_4
804,9,5,,5,10,Aktiven,,2017,9. 5. 2017,10_Maj_2017_9_5
805,9,6,,5,10,Aktiven,,2017,9. 5. 2017,10_Maj_2017_9_6
806,9,7,,5,10,Aktiven,,2017,9. 5. 2017,10_Maj_2017_9_7
807,9,8,,5,10,Aktiven,,2017,9. 5. 2017,10_Maj_2017_9_8
808,9,9,,5,10,Aktiven,,2017,9. 5. 2017,10_Maj_2017_9_9
809,9,10,,5,10,Aktiven,,2017,9. 5. 2017,10_Maj_2017_9_10
810,9,11,,5,10,Aktiven,,2017,9. 5. 2017,10_Maj_2017_9_11
811,9,12,,5,10,Aktiven,,2017,9. 5. 2017,10_Maj_2017_9_12
812,9,13,,5,10,Aktiven,,2017,9. 5. 2017,10_Maj_2017_9_13
813,9,14,,5,10,Aktiven,,2017,9. 5. 2017,10_Maj_2017_9_14
814,9,15,,5,10,Aktiven,,2017,9. 5. 2017,10_Maj_2017_9_15
815,9,16,,5,10,Aktiven,,2017,9. 5. 2017,10_Maj_2017_9_16
816,9,17,,5,10,Aktiven,,2017,9. 5. 2017,10_Maj_2017_9_17
817,10,1,,5,10,Aktiven,,2017,9. 5. 2017,10_Maj_2017_10_1
818,10,2,,5,10,Aktiven,,2017,9. 5. 2017,10_Maj_2017_10_2
819,10,3,,5,10,Aktiven,,2017,9. 5. 2017,10_Maj_2017_10_3
820,10,4,,5,10,Aktiven,,2017,9. 5. 2017,10_Maj_2017_10_4
821,10,5,,5,10,Aktiven,,2017,9. 5. 2017,10_Maj_2017_10_5
822,10,6,,5,10,Aktiven,,2017,9. 5. 2017,10_Maj_2017_10_6
823,10,7,,5,10,Aktiven,,2017,9. 5. 2017,10_Maj_2017_10_7
824,10,8,,5,10,Aktiven,,2017,9. 5. 2017,10_Maj_2017_10_8
825,10,9,,5,10,Aktiven,,2017,9. 5. 2017,10_Maj_2017_10_9
826,10,10,,5,10,Aktiven,,2017,9. 5. 2017,10_Maj_2017_10_10
827,10,11,,5,10,Aktiven,,2017,9. 5. 2017,10_Maj_2017_10_11
828,10,12,,5,10,Aktiven,,2017,9. 5. 2017,10_Maj_2017_10_12
829,10,13,,5,10,Aktiven,,2017,9. 5. 2017,10_Maj_2017_10_13
830,10,14,,5,10,Aktiven,,2017,9. 5. 2017,10_Maj_2017_10_14
831,10,15,,5,10,Aktiven,,2017,9. 5. 2017,10_Maj_2017_10_15
832,10,16,,5,10,Aktiven,,2017,9. 5. 2017,10_Maj_2017_10_16
833,10,17,,5,10,Aktiven,,2017,9. 5. 2017,10_Maj_2017_10_17
834,11,1,,5,10,Aktiven,,2017,9. 5. 2017,10_Maj_2017_11_1
835,11,2,,5,10,Aktiven,,2017,9. 5. 2017,10_Maj_2017_11_2
836,11,3,,5,10,Aktiven,,2017,9. 5. 2017,10_Maj_2017_11_3
837,11,4,,5,10,Aktiven,,2017,9. 5. 2017,10_Maj_2017_11_4
838,11,5,,5,10,Aktiven,,2017,9. 5. 2017,10_Maj_2017_11_5
839,11,6,,5,10,Aktiven,,2017,9. 5. 2017,10_Maj_2017_11_6
840,11,7,,5,10,Aktiven,,2017,9. 5. 2017,10_Maj_2017_11_7
841,11,8,,5,10,Aktiven,,2017,9. 5. 2017,10_Maj_2017_11_8
842,11,9,,5,10,Aktiven,,2017,9. 5. 2017,10_Maj_2017_11_9
843,11,10,,5,10,Aktiven,,2017,9. 5. 2017,10_Maj_2017_11_10
844,11,11,,5,10,Aktiven,,2017,9. 5. 2017,10_Maj_2017_11_11
845,11,12,,5,10,Aktiven,,2017,9. 5. 2017,10_Maj_2017_11_12
846,11,13,,5,10,Aktiven,,2017,9. 5. 2017,10_Maj_2017_11_13
847,11,14,,5,10,Aktiven,,2017,9. 5. 2017,10_Maj_2017_11_14
848,11,15,,5,10,Aktiven,,2017,9. 5. 2017,10_Maj_2017_11_15
849,11,16,,5,10,Aktiven,,2017,9. 5. 2017,10_Maj_2017_11_16
850,11,17,,5,10,Aktiven,,2017,9. 5. 2017,10_Maj_2017_11_17
